%YAML 1.1
%TAG !u! tag:unity3d.com,2011:
--- !u!74 &7400000
AnimationClip:
  m_ObjectHideFlags: 0
  m_CorrespondingSourceObject: {fileID: 0}
  m_PrefabInternal: {fileID: 0}
  m_Name: ZombieFemaleIdle
  serializedVersion: 6
  m_Legacy: 0
  m_Compressed: 0
  m_UseHighQualityCurve: 1
  m_RotationCurves: []
  m_CompressedRotationCurves: []
  m_EulerCurves: []
  m_PositionCurves: []
  m_ScaleCurves: []
  m_FloatCurves: []
  m_PPtrCurves:
  - curve:
    - time: 0
      value: {fileID: 21300000, guid: 5d706ca10b516aa4ca0a53a6a7def68c, type: 3}
    - time: 0.083333336
      value: {fileID: 21300000, guid: f7bcb0c09d5ffb842a6164ed22ccdf2d, type: 3}
    - time: 0.16666667
      value: {fileID: 21300000, guid: fa568ff1560e6d14b884e76c299ff58d, type: 3}
    - time: 0.25
      value: {fileID: 21300000, guid: 2926dabba460bdc47ad5fcbf3df42a95, type: 3}
    - time: 0.33333334
      value: {fileID: 21300000, guid: 0db6c34940e5c944983dce0fc5e67383, type: 3}
    - time: 0.41666666
      value: {fileID: 21300000, guid: 3749cc5e97c9e4d44b4eabaf5fd0cafc, type: 3}
    - time: 0.5
      value: {fileID: 21300000, guid: 67d0e7d6035f40945937cee1757972f9, type: 3}
    - time: 0.5833333
      value: {fileID: 21300000, guid: 23f3c7b07e28cb7458136240f08883c0, type: 3}
    - time: 0.6666667
      value: {fileID: 21300000, guid: ca73f48ad03189a4cbe8acdd2fa21ed0, type: 3}
    - time: 0.75
      value: {fileID: 21300000, guid: 0a338ea792eed194184db94e08c80abd, type: 3}
    - time: 0.8333333
      value: {fileID: 21300000, guid: ff27d960355879e4098c6b868094cbea, type: 3}
    - time: 0.9166667
      value: {fileID: 21300000, guid: 4cb330367664a884085a4da27c70cdd3, type: 3}
    - time: 1
      value: {fileID: 21300000, guid: f294707707eb02148bf9f0ecfc02feab, type: 3}
    - time: 1.0833334
      value: {fileID: 21300000, guid: 71b27a2e536377a41b3d90e3b8200527, type: 3}
    - time: 1.1666666
      value: {fileID: 21300000, guid: 47333cd79c5b19f4d971ac94ac4041f0, type: 3}
    attribute: m_Sprite
    path: 
    classID: 212
    script: {fileID: 0}
  m_SampleRate: 12
  m_WrapMode: 0
  m_Bounds:
    m_Center: {x: 0, y: 0, z: 0}
    m_Extent: {x: 0, y: 0, z: 0}
  m_ClipBindingConstant:
    genericBindings:
    - serializedVersion: 2
      path: 0
      attribute: 0
      script: {fileID: 0}
      typeID: 212
      customType: 23
      isPPtrCurve: 1
    pptrCurveMapping:
    - {fileID: 21300000, guid: 5d706ca10b516aa4ca0a53a6a7def68c, type: 3}
    - {fileID: 21300000, guid: f7bcb0c09d5ffb842a6164ed22ccdf2d, type: 3}
    - {fileID: 21300000, guid: fa568ff1560e6d14b884e76c299ff58d, type: 3}
    - {fileID: 21300000, guid: 2926dabba460bdc47ad5fcbf3df42a95, type: 3}
    - {fileID: 21300000, guid: 0db6c34940e5c944983dce0fc5e67383, type: 3}
    - {fileID: 21300000, guid: 3749cc5e97c9e4d44b4eabaf5fd0cafc, type: 3}
    - {fileID: 21300000, guid: 67d0e7d6035f40945937cee1757972f9, type: 3}
    - {fileID: 21300000, guid: 23f3c7b07e28cb7458136240f08883c0, type: 3}
    - {fileID: 21300000, guid: ca73f48ad03189a4cbe8acdd2fa21ed0, type: 3}
    - {fileID: 21300000, guid: 0a338ea792eed194184db94e08c80abd, type: 3}
    - {fileID: 21300000, guid: ff27d960355879e4098c6b868094cbea, type: 3}
    - {fileID: 21300000, guid: 4cb330367664a884085a4da27c70cdd3, type: 3}
    - {fileID: 21300000, guid: f294707707eb02148bf9f0ecfc02feab, type: 3}
    - {fileID: 21300000, guid: 71b27a2e536377a41b3d90e3b8200527, type: 3}
    - {fileID: 21300000, guid: 47333cd79c5b19f4d971ac94ac4041f0, type: 3}
  m_AnimationClipSettings:
    serializedVersion: 2
    m_AdditiveReferencePoseClip: {fileID: 0}
    m_AdditiveReferencePoseTime: 0
    m_StartTime: 0
    m_StopTime: 1.25
    m_OrientationOffsetY: 0
    m_Level: 0
    m_CycleOffset: 0
    m_HasAdditiveReferencePose: 0
    m_LoopTime: 1
    m_LoopBlend: 0
    m_LoopBlendOrientation: 0
    m_LoopBlendPositionY: 0
    m_LoopBlendPositionXZ: 0
    m_KeepOriginalOrientation: 0
    m_KeepOriginalPositionY: 1
    m_KeepOriginalPositionXZ: 0
    m_HeightFromFeet: 0
    m_Mirror: 0
  m_EditorCurves: []
  m_EulerEditorCurves: []
  m_HasGenericRootTransform: 0
  m_HasMotionFloatCurves: 0
  m_GenerateMotionCurves: 0
  m_Events: []
