%YAML 1.1
%TAG !u! tag:unity3d.com,2011:
--- !u!74 &7400000
AnimationClip:
  m_ObjectHideFlags: 0
  m_CorrespondingSourceObject: {fileID: 0}
  m_PrefabInternal: {fileID: 0}
  m_Name: RobotDead
  serializedVersion: 6
  m_Legacy: 0
  m_Compressed: 0
  m_UseHighQualityCurve: 1
  m_RotationCurves: []
  m_CompressedRotationCurves: []
  m_EulerCurves: []
  m_PositionCurves: []
  m_ScaleCurves: []
  m_FloatCurves: []
  m_PPtrCurves:
  - curve:
    - time: 0
      value: {fileID: 21300000, guid: 2c371dcb5bf973a409b9d95d28837b85, type: 3}
    - time: 0.083333336
      value: {fileID: 21300000, guid: 62c40854681206f40ac30016226c5a8f, type: 3}
    - time: 0.16666667
      value: {fileID: 21300000, guid: 65964c2bcc113bf4d90b895c050d7db1, type: 3}
    - time: 0.25
      value: {fileID: 21300000, guid: 672e4bc90c0ca334684a4958d5cae18a, type: 3}
    - time: 0.33333334
      value: {fileID: 21300000, guid: e90b23c4e9c348a4d98bbccef8429bab, type: 3}
    - time: 0.41666666
      value: {fileID: 21300000, guid: 36bbf250b58b346418108b3c9014e3db, type: 3}
    - time: 0.5
      value: {fileID: 21300000, guid: 5c3176c96dea79b41bd46bd78344f299, type: 3}
    - time: 0.5833333
      value: {fileID: 21300000, guid: 400d0b64221a19a459bddef3b995df8b, type: 3}
    - time: 0.6666667
      value: {fileID: 21300000, guid: 90b075d2436fca145966aa0d2027332a, type: 3}
    - time: 0.75
      value: {fileID: 21300000, guid: b1388e4543ac36d4fbc2318f366f59c5, type: 3}
    attribute: m_Sprite
    path: 
    classID: 212
    script: {fileID: 0}
  m_SampleRate: 12
  m_WrapMode: 0
  m_Bounds:
    m_Center: {x: 0, y: 0, z: 0}
    m_Extent: {x: 0, y: 0, z: 0}
  m_ClipBindingConstant:
    genericBindings:
    - serializedVersion: 2
      path: 0
      attribute: 0
      script: {fileID: 0}
      typeID: 212
      customType: 23
      isPPtrCurve: 1
    pptrCurveMapping:
    - {fileID: 21300000, guid: 2c371dcb5bf973a409b9d95d28837b85, type: 3}
    - {fileID: 21300000, guid: 62c40854681206f40ac30016226c5a8f, type: 3}
    - {fileID: 21300000, guid: 65964c2bcc113bf4d90b895c050d7db1, type: 3}
    - {fileID: 21300000, guid: 672e4bc90c0ca334684a4958d5cae18a, type: 3}
    - {fileID: 21300000, guid: e90b23c4e9c348a4d98bbccef8429bab, type: 3}
    - {fileID: 21300000, guid: 36bbf250b58b346418108b3c9014e3db, type: 3}
    - {fileID: 21300000, guid: 5c3176c96dea79b41bd46bd78344f299, type: 3}
    - {fileID: 21300000, guid: 400d0b64221a19a459bddef3b995df8b, type: 3}
    - {fileID: 21300000, guid: 90b075d2436fca145966aa0d2027332a, type: 3}
    - {fileID: 21300000, guid: b1388e4543ac36d4fbc2318f366f59c5, type: 3}
  m_AnimationClipSettings:
    serializedVersion: 2
    m_AdditiveReferencePoseClip: {fileID: 0}
    m_AdditiveReferencePoseTime: 0
    m_StartTime: 0
    m_StopTime: 0.8333333
    m_OrientationOffsetY: 0
    m_Level: 0
    m_CycleOffset: 0
    m_HasAdditiveReferencePose: 0
    m_LoopTime: 0
    m_LoopBlend: 0
    m_LoopBlendOrientation: 0
    m_LoopBlendPositionY: 0
    m_LoopBlendPositionXZ: 0
    m_KeepOriginalOrientation: 0
    m_KeepOriginalPositionY: 1
    m_KeepOriginalPositionXZ: 0
    m_HeightFromFeet: 0
    m_Mirror: 0
  m_EditorCurves: []
  m_EulerEditorCurves: []
  m_HasGenericRootTransform: 0
  m_HasMotionFloatCurves: 0
  m_GenerateMotionCurves: 0
  m_Events: []
