%YAML 1.1
%TAG !u! tag:unity3d.com,2011:
--- !u!74 &7400000
AnimationClip:
  m_ObjectHideFlags: 0
  m_CorrespondingSourceObject: {fileID: 0}
  m_PrefabInternal: {fileID: 0}
  m_Name: Run
  serializedVersion: 6
  m_Legacy: 0
  m_Compressed: 0
  m_UseHighQualityCurve: 1
  m_RotationCurves: []
  m_CompressedRotationCurves: []
  m_EulerCurves: []
  m_PositionCurves: []
  m_ScaleCurves: []
  m_FloatCurves: []
  m_PPtrCurves:
  - curve:
    - time: 0
      value: {fileID: 21300000, guid: 42aab62da32dfd64fbbbff0b2ed7ded6, type: 3}
    - time: 0.083333336
      value: {fileID: 21300000, guid: e5168ae240eace24d937b3902fc76f12, type: 3}
    - time: 0.16666667
      value: {fileID: 21300000, guid: 7ea8034f1f8fe4247baf320f5676a930, type: 3}
    - time: 0.25
      value: {fileID: 21300000, guid: 803572734fcaf4846a9d657fe943a823, type: 3}
    - time: 0.33333334
      value: {fileID: 21300000, guid: 74145eb60b630634d81d5190cb714249, type: 3}
    - time: 0.41666666
      value: {fileID: 21300000, guid: df1fcc7dbebcc524eb8168ddf0261fcf, type: 3}
    - time: 0.5
      value: {fileID: 21300000, guid: 2152afc1133f09b42818ba2ed47c4315, type: 3}
    - time: 0.5833333
      value: {fileID: 21300000, guid: b61085283ec1ef0459e2e0eca7f3db44, type: 3}
    - time: 0.6666667
      value: {fileID: 21300000, guid: ffce81388140da14fa36c63f39398b51, type: 3}
    - time: 0.75
      value: {fileID: 21300000, guid: 15389218680897f469f9ea1f6e185964, type: 3}
    attribute: m_Sprite
    path: 
    classID: 212
    script: {fileID: 0}
  m_SampleRate: 12
  m_WrapMode: 0
  m_Bounds:
    m_Center: {x: 0, y: 0, z: 0}
    m_Extent: {x: 0, y: 0, z: 0}
  m_ClipBindingConstant:
    genericBindings:
    - serializedVersion: 2
      path: 0
      attribute: 0
      script: {fileID: 0}
      typeID: 212
      customType: 23
      isPPtrCurve: 1
    pptrCurveMapping:
    - {fileID: 21300000, guid: 42aab62da32dfd64fbbbff0b2ed7ded6, type: 3}
    - {fileID: 21300000, guid: e5168ae240eace24d937b3902fc76f12, type: 3}
    - {fileID: 21300000, guid: 7ea8034f1f8fe4247baf320f5676a930, type: 3}
    - {fileID: 21300000, guid: 803572734fcaf4846a9d657fe943a823, type: 3}
    - {fileID: 21300000, guid: 74145eb60b630634d81d5190cb714249, type: 3}
    - {fileID: 21300000, guid: df1fcc7dbebcc524eb8168ddf0261fcf, type: 3}
    - {fileID: 21300000, guid: 2152afc1133f09b42818ba2ed47c4315, type: 3}
    - {fileID: 21300000, guid: b61085283ec1ef0459e2e0eca7f3db44, type: 3}
    - {fileID: 21300000, guid: ffce81388140da14fa36c63f39398b51, type: 3}
    - {fileID: 21300000, guid: 15389218680897f469f9ea1f6e185964, type: 3}
  m_AnimationClipSettings:
    serializedVersion: 2
    m_AdditiveReferencePoseClip: {fileID: 0}
    m_AdditiveReferencePoseTime: 0
    m_StartTime: 0
    m_StopTime: 0.8333333
    m_OrientationOffsetY: 0
    m_Level: 0
    m_CycleOffset: 0
    m_HasAdditiveReferencePose: 0
    m_LoopTime: 1
    m_LoopBlend: 0
    m_LoopBlendOrientation: 0
    m_LoopBlendPositionY: 0
    m_LoopBlendPositionXZ: 0
    m_KeepOriginalOrientation: 0
    m_KeepOriginalPositionY: 1
    m_KeepOriginalPositionXZ: 0
    m_HeightFromFeet: 0
    m_Mirror: 0
  m_EditorCurves: []
  m_EulerEditorCurves: []
  m_HasGenericRootTransform: 0
  m_HasMotionFloatCurves: 0
  m_GenerateMotionCurves: 0
  m_Events:
  - time: 0.25
    functionName: PlayStepSound
    data: 
    objectReferenceParameter: {fileID: 0}
    floatParameter: 0
    intParameter: 0
    messageOptions: 0
  - time: 0.6666667
    functionName: PlayStepSound
    data: 
    objectReferenceParameter: {fileID: 0}
    floatParameter: 0
    intParameter: 0
    messageOptions: 0
