%YAML 1.1
%TAG !u! tag:unity3d.com,2011:
--- !u!74 &7400000
AnimationClip:
  m_ObjectHideFlags: 0
  m_CorrespondingSourceObject: {fileID: 0}
  m_PrefabInternal: {fileID: 0}
  m_Name: TakeOff
  serializedVersion: 6
  m_Legacy: 0
  m_Compressed: 0
  m_UseHighQualityCurve: 1
  m_RotationCurves: []
  m_CompressedRotationCurves: []
  m_EulerCurves: []
  m_PositionCurves: []
  m_ScaleCurves: []
  m_FloatCurves: []
  m_PPtrCurves:
  - curve:
    - time: 0
      value: {fileID: 21300000, guid: 7f38ad2f14f3e8142a0c8e111ce0b771, type: 3}
    - time: 0.083333336
      value: {fileID: 21300000, guid: 8bdc0661e5e08554093552875cb3c821, type: 3}
    - time: 0.16666667
      value: {fileID: 21300000, guid: 16a8e6cee675a594b9b2c4c484966910, type: 3}
    - time: 0.25
      value: {fileID: 21300000, guid: 0dc6c09ec062b1744842d64e59d1d204, type: 3}
    - time: 0.33333334
      value: {fileID: 21300000, guid: eab7506fa506ee547954693c7faf5663, type: 3}
    - time: 0.41666666
      value: {fileID: 21300000, guid: 24a0fa14569fe0e4a9a86edb92c3f99b, type: 3}
    - time: 0.5
      value: {fileID: 21300000, guid: 3ad46f550cb13de4f88bbd7ecc785105, type: 3}
    attribute: m_Sprite
    path: 
    classID: 212
    script: {fileID: 0}
  m_SampleRate: 12
  m_WrapMode: 0
  m_Bounds:
    m_Center: {x: 0, y: 0, z: 0}
    m_Extent: {x: 0, y: 0, z: 0}
  m_ClipBindingConstant:
    genericBindings:
    - serializedVersion: 2
      path: 0
      attribute: 0
      script: {fileID: 0}
      typeID: 212
      customType: 23
      isPPtrCurve: 1
    pptrCurveMapping:
    - {fileID: 21300000, guid: 7f38ad2f14f3e8142a0c8e111ce0b771, type: 3}
    - {fileID: 21300000, guid: 8bdc0661e5e08554093552875cb3c821, type: 3}
    - {fileID: 21300000, guid: 16a8e6cee675a594b9b2c4c484966910, type: 3}
    - {fileID: 21300000, guid: 0dc6c09ec062b1744842d64e59d1d204, type: 3}
    - {fileID: 21300000, guid: eab7506fa506ee547954693c7faf5663, type: 3}
    - {fileID: 21300000, guid: 24a0fa14569fe0e4a9a86edb92c3f99b, type: 3}
    - {fileID: 21300000, guid: 3ad46f550cb13de4f88bbd7ecc785105, type: 3}
  m_AnimationClipSettings:
    serializedVersion: 2
    m_AdditiveReferencePoseClip: {fileID: 0}
    m_AdditiveReferencePoseTime: 0
    m_StartTime: 0
    m_StopTime: 0.5833333
    m_OrientationOffsetY: 0
    m_Level: 0
    m_CycleOffset: 0
    m_HasAdditiveReferencePose: 0
    m_LoopTime: 0
    m_LoopBlend: 0
    m_LoopBlendOrientation: 0
    m_LoopBlendPositionY: 0
    m_LoopBlendPositionXZ: 0
    m_KeepOriginalOrientation: 0
    m_KeepOriginalPositionY: 1
    m_KeepOriginalPositionXZ: 0
    m_HeightFromFeet: 0
    m_Mirror: 0
  m_EditorCurves: []
  m_EulerEditorCurves: []
  m_HasGenericRootTransform: 0
  m_HasMotionFloatCurves: 0
  m_GenerateMotionCurves: 0
  m_Events:
  - time: 0.16666667
    functionName: PlayJumpSound
    data: 
    objectReferenceParameter: {fileID: 0}
    floatParameter: 0
    intParameter: 0
    messageOptions: 0
