%YAML 1.1
%TAG !u! tag:unity3d.com,2011:
--- !u!1045 &1
EditorBuildSettings:
  m_ObjectHideFlags: 0
  serializedVersion: 2
  m_Scenes:
  - enabled: 1
    path: Assets/_Scenes/StartMenu.unity
    guid: 3750a1bcd394a5d41a57ed7bfdb3eb88
  - enabled: 1
    path: Assets/_Scenes/Level 1.unity
    guid: 2cda990e2423bbf4892e6590ba056729
  - enabled: 1
    path: Assets/_Scenes/Level 2.unity
    guid: 83dd981897fbc3e4ab86619f6e268652
  - enabled: 1
    path: Assets/_Scenes/Level 3.unity
    guid: ab8b60342378165459b4369bd86d8a4d
  m_configObjects: {}
